digraph "Error Code Collection"
{
  edge [fontname="Helvetica",fontsize="10",labelfontname="Helvetica",labelfontsize="10"];
  node [fontname="Helvetica",fontsize="10",shape=record];
  rankdir=LR;
  Node0 [label="Error Code Collection",height=0.2,width=0.4,color="black", fillcolor="grey75", style="filled", fontcolor="black"];
  Node1 [label="Other",height=0.2,width=0.4,color="black", fillcolor="white", style="filled",URL="$d8/d5b/group__phother.html",tooltip="Contains all other components or definitions. "];
  Node1->Node0 [shape=plaintext, dir="back", style="solid"];
}
