digraph "Component : Software"
{
  edge [fontname="Helvetica",fontsize="10",labelfontname="Helvetica",labelfontsize="10"];
  node [fontname="Helvetica",fontsize="10",shape=record];
  rankdir=LR;
  Node0 [label="Component : Software",height=0.2,width=0.4,color="black", fillcolor="grey75", style="filled", fontcolor="black"];
  Node1 [label="ISO/IEC 18000-3 Mode3",height=0.2,width=0.4,color="black", fillcolor="white", style="filled",URL="$d3/db9/group__phalI18000p3m3.html",tooltip="These Components implement the ICODE ILT support. "];
  Node1->Node0 [shape=plaintext, dir="back", style="solid"];
}
