digraph "Commands_DataManagement"
{
  edge [fontname="Helvetica",fontsize="10",labelfontname="Helvetica",labelfontsize="10"];
  node [fontname="Helvetica",fontsize="10",shape=record];
  rankdir=LR;
  Node1 [label="NTAG 42x DNA / TT",height=0.2,width=0.4,color="black", fillcolor="white", style="filled",URL="$db/df1/group__phalMfNtag42xDna.html",tooltip="These Functions implement the NTAG 42x DNA / TT commands. "];
  Node0 [label="Commands_DataManagement",height=0.2,width=0.4,color="black", fillcolor="grey75", style="filled", fontcolor="black"];
  Node1->Node0 [shape=plaintext, dir="back", style="solid"];
}
