digraph "Component : Software"
{
  edge [fontname="Helvetica",fontsize="10",labelfontname="Helvetica",labelfontsize="10"];
  node [fontname="Helvetica",fontsize="10",shape=record];
  rankdir=LR;
  Node0 [label="Component : Software",height=0.2,width=0.4,color="black", fillcolor="grey75", style="filled", fontcolor="black"];
  Node1 [label="ISO/IEC 15693 / ISO\l/IEC 18000-3M1",height=0.2,width=0.4,color="black", fillcolor="white", style="filled",URL="$d9/dcf/group__phpalSli15693.html",tooltip="These component implements the protocol layer (activation) commands of ISO/IEC 15693 (ISO/IEC 18000-3..."];
  Node1->Node0 [shape=plaintext, dir="back", style="solid"];
}
