digraph "Common"
{
  edge [fontname="Helvetica",fontsize="10",labelfontname="Helvetica",labelfontsize="10"];
  node [fontname="Helvetica",fontsize="10",shape=record];
  rankdir=LR;
  Node2 [label="KeyStore",height=0.2,width=0.4,color="black", fillcolor="white", style="filled",URL="$de/d4e/group__phKeyStore.html",tooltip="This is only a wrapper layer to abstract the different KeyStore implementations. "];
  Node0 [label="Common",height=0.2,width=0.4,color="black", fillcolor="grey75", style="filled", fontcolor="black"];
  Node8 [label="Virtual Card Architecture (R)",height=0.2,width=0.4,color="black", fillcolor="white", style="filled",URL="$d3/d83/group__phalVca.html",tooltip="These Components implement the Virtual Card Architecture (R) commands. "];
  Node5 [label="Tools",height=0.2,width=0.4,color="black", fillcolor="white", style="filled",URL="$db/d56/group__phTools.html",tooltip="This component implements tools that are necessary for many different software modules. "];
  Node1 [label="Cid Manager",height=0.2,width=0.4,color="black", fillcolor="white", style="filled",URL="$de/dd7/group__phCidManager.html",tooltip="Eases Multiple-Card-Management by providing and locking CIDs. "];
  Node7 [label="TMI Utilities",height=0.2,width=0.4,color="black", fillcolor="white", style="filled",URL="$d6/d0f/group__phTMIUtils.html",tooltip="This layer provides Utilities for operating on transaction MAC. "];
  Node4 [label="CryptoRng",height=0.2,width=0.4,color="black", fillcolor="white", style="filled",URL="$d3/db3/group__phCryptoRng.html",tooltip="This is only a wrapper layer to abstract the different crypto random number generator implementations..."];
  Node6 [label="Log",height=0.2,width=0.4,color="black", fillcolor="white", style="filled",URL="$d4/d4a/group__phLog.html",tooltip="This layer provides logging and debug functionality. "];
  Node3 [label="CryptoSym",height=0.2,width=0.4,color="black", fillcolor="white", style="filled",URL="$dc/dfa/group__phCryptoSym.html",tooltip="This is only a wrapper layer to abstract the different CryptoSym implementations. ..."];
  Node0->Node1 [shape=plaintext, dir="back", style="solid"];
  Node0->Node2 [shape=plaintext, dir="back", style="solid"];
  Node0->Node3 [shape=plaintext, dir="back", style="solid"];
  Node0->Node4 [shape=plaintext, dir="back", style="solid"];
  Node0->Node5 [shape=plaintext, dir="back", style="solid"];
  Node0->Node6 [shape=plaintext, dir="back", style="solid"];
  Node0->Node7 [shape=plaintext, dir="back", style="solid"];
  Node0->Node8 [shape=plaintext, dir="back", style="solid"];
}
