digraph "Tag Operation Layer"
{
  edge [fontname="Helvetica",fontsize="10",labelfontname="Helvetica",labelfontsize="10"];
  node [fontname="Helvetica",fontsize="10",shape=record];
  rankdir=LR;
  Node0 [label="Tag Operation Layer",height=0.2,width=0.4,color="black", fillcolor="grey75", style="filled", fontcolor="black"];
  Node1 [label="Application Layer",height=0.2,width=0.4,color="black", fillcolor="white", style="filled",URL="$d3/d6e/group__phal.html",tooltip="Contains Application specific implementations for various contactless cards (MIFARE DESFire..."];
  Node2 [label="Component : Software",height=0.2,width=0.4,color="black", fillcolor="white", style="filled",URL="$d2/d7b/group__phalTop__Sw.html"];
  Node1->Node0 [shape=plaintext, dir="back", style="solid"];
  Node0->Node2 [shape=plaintext, dir="back", style="solid"];
}
