digraph "component : Pn5180"
{
  edge [fontname="Helvetica",fontsize="10",labelfontname="Helvetica",labelfontsize="10"];
  node [fontname="Helvetica",fontsize="10",shape=record];
  rankdir=LR;
  Node0 [label="component : Pn5180",height=0.2,width=0.4,color="black", fillcolor="grey75", style="filled", fontcolor="black"];
  Node2 [label="Instruction",height=0.2,width=0.4,color="black", fillcolor="white", style="filled",URL="$d0/d35/group__phhalHw__PN5180__Instr.html",tooltip="Pn5180 Instruction functions. "];
  Node1 [label="Hardware Abstraction\l Layer",height=0.2,width=0.4,color="black", fillcolor="white", style="filled",URL="$d6/d78/group__phhalHw.html",tooltip="These are the components which are used to abstract the functionality of the physical reader device t..."];
  Node3 [label="Internal",height=0.2,width=0.4,color="black", fillcolor="white", style="filled",URL="$db/d10/group__phhalHw__PN5180__Int.html",tooltip="Pn5180 Int functions. "];
  Node1->Node0 [shape=plaintext, dir="back", style="solid"];
  Node0->Node2 [shape=plaintext, dir="back", style="solid"];
  Node0->Node3 [shape=plaintext, dir="back", style="solid"];
}
