digraph "Component : Software"
{
  edge [fontname="Helvetica",fontsize="10",labelfontname="Helvetica",labelfontsize="10"];
  node [fontname="Helvetica",fontsize="10",shape=record];
  rankdir=LR;
  Node0 [label="Component : Software",height=0.2,width=0.4,color="black", fillcolor="grey75", style="filled", fontcolor="black"];
  Node1 [label="MIFARE Plus EVx",height=0.2,width=0.4,color="black", fillcolor="white", style="filled",URL="$d9/dd5/group__phalMfpEVx.html",tooltip="These Components implement the MIFARE Plus (EVx, EV2, future versions) commands. "];
  Node1->Node0 [shape=plaintext, dir="back", style="solid"];
}
