digraph "Cid Manager"
{
  edge [fontname="Helvetica",fontsize="10",labelfontname="Helvetica",labelfontsize="10"];
  node [fontname="Helvetica",fontsize="10",shape=record];
  rankdir=LR;
  Node1 [label="Common",height=0.2,width=0.4,color="black", fillcolor="white", style="filled",URL="$de/dd0/group__phcommon.html",tooltip="Common Components without dependencies. "];
  Node0 [label="Cid Manager",height=0.2,width=0.4,color="black", fillcolor="grey75", style="filled", fontcolor="black"];
  Node2 [label="Component : Software",height=0.2,width=0.4,color="black", fillcolor="white", style="filled",URL="$d8/d83/group__phCidManager__Sw.html",tooltip="Software implementation. "];
  Node1->Node0 [shape=plaintext, dir="back", style="solid"];
  Node0->Node2 [shape=plaintext, dir="back", style="solid"];
}
