digraph "Commands_ApplicationManagement"
{
  edge [fontname="Helvetica",fontsize="10",labelfontname="Helvetica",labelfontsize="10"];
  node [fontname="Helvetica",fontsize="10",shape=record];
  rankdir=LR;
  Node1 [label="MIFARE DESFire EVx",height=0.2,width=0.4,color="black", fillcolor="white", style="filled",URL="$d0/d9f/group__phalMfdfEVx.html",tooltip="These Functions implement the MIFARE DESFire EVx commands. "];
  Node0 [label="Commands_ApplicationManagement",height=0.2,width=0.4,color="black", fillcolor="grey75", style="filled", fontcolor="black"];
  Node1->Node0 [shape=plaintext, dir="back", style="solid"];
}
