digraph "Hardware Abstraction Layer"
{
  edge [fontname="Helvetica",fontsize="10",labelfontname="Helvetica",labelfontsize="10"];
  node [fontname="Helvetica",fontsize="10",shape=record];
  rankdir=LR;
  Node2 [label="component : Pn5180",height=0.2,width=0.4,color="black", fillcolor="white", style="filled",URL="$d6/d19/group__phhalHw__Pn5180.html",tooltip="Pn5180 HAL component. "];
  Node1 [label="component : Rc663",height=0.2,width=0.4,color="black", fillcolor="white", style="filled",URL="$d3/d50/group__phhalHw__Rc663.html",tooltip="RC663 Reader HAL. "];
  Node3 [label="component : Pn5190",height=0.2,width=0.4,color="black", fillcolor="white", style="filled",URL="$d3/dbf/group__phhalHw__Pn5190.html",tooltip="Pn5190 HAL component. "];
  Node0 [label="Hardware Abstraction\l Layer",height=0.2,width=0.4,color="black", fillcolor="grey75", style="filled", fontcolor="black"];
  Node0->Node1 [shape=plaintext, dir="back", style="solid"];
  Node0->Node2 [shape=plaintext, dir="back", style="solid"];
  Node0->Node3 [shape=plaintext, dir="back", style="solid"];
}
