digraph "NFC NXP NFC Library Definitions"
{
  edge [fontname="Helvetica",fontsize="10",labelfontname="Helvetica",labelfontsize="10"];
  node [fontname="Helvetica",fontsize="10",shape=record];
  rankdir=LR;
  Node1 [label="NXP NFC Library Top\l Level API",height=0.2,width=0.4,color="black", fillcolor="white", style="filled",URL="$d7/dfa/group__nfc__lib.html",tooltip="NXP NFC Library Top Level API. "];
  Node0 [label="NFC NXP NFC Library\l Definitions",height=0.2,width=0.4,color="black", fillcolor="grey75", style="filled", fontcolor="black"];
  Node1->Node0 [shape=plaintext, dir="back", style="solid"];
}
